{
    "commentary": "jitsi",
    "id": "pe-jitsi-module",
    "title": "PE jitsi",
    "description": "jitsi",
    "preority": 1,
    "version": "0.1.0",
    "author": "genag1@list.ru",
    "documentation": "",
    "git": "https://gitlab.com/genagl/react-pe-jitsi-module.git",
    "views": {
        "SingleTranslationView": {
            "title": "Single Translation View",
            "description": "",
			"module":"pe-jitsi-module"
        },
        "TranslationsView": {
            "title": "List of Translations View",
            "description": "",
			"module":"pe-jitsi-module"
        }
    },
    "widgets": {
		"CurrentTranslations": {
			"title": "Current Translations list",
			"description": "",
			"module":"pe-jitsi-module"
		},
		"StartTranslation": {
			"title": "Start new Translation pult",
			"description": "",
			"module":"pe-jitsi-module"
		},
		"Transactions": {
			"title": "All Transactions list",
			"description": "",
			"module":"pe-jitsi-module"
		}
     },
    "extentions": { 
        "RoomMemberPult": {
			"title": "Room Member's Pult",
			"description": "",
			"preority": 1,
			"area": [
				{
					"id": "translation-menu"
				}
			],
			"fields":[
				{
					"title": "room",
					"type": "PE_Room"
				}
			],
			"module" : "pe-jitsi-module"	
		},
        "RoomPult": {
			"title": "Room's Pult",
			"description": "",
			"preority": 1,
			"area": [
				{
					"id": "translation-menu"
				}
			],
			"fields":[
				{
					"title": "room",
					"type": "PE_Room"
				}
			],
			"module" : "pe-jitsi-module"	
		},
        "TranslationMenu": {
			"title": "Translation Menu",
			"description": "",
			"preority": 1,
			"area": [
				{
					"id": "translation-menu"
				}
			],
			"fields":[
				{
					"title": "translation",
					"type": "PE_Translation"
				}
			],
			"module" : "pe-jitsi-module"	
		},
        "TranslationPult": {
			"title": "Translation Pult",
			"description": "",
			"preority": 1,
			"area": [
				{
					"id": "translation-menu"
				}
			],
			"fields":[
				{
					"title": "translation",
					"type": "PE_Translation"
				}
			],
			"module" : "pe-jitsi-module"	
		}
    },
    "widget-area": {
		"translation-menu": {
			"title": "Left Menu element",
			"description": "Гнездо монтирует виджеты в каждый элемент левого меню сайта",
			"area": [ ],
			"module":"pe-jitsi-module"
		}
    },
    "assets": {
        "css": [],
        "js":[],
        "img":[]
    },
    "schema": { 
		"PE_Translation": {
			"admin_data": {
				"fill": [
					"#394B59",
					"#30404D"
				]
			},
			"apollo_fields": {
				"id": {
					"type": "string",
					"title": "id",
					"thread": 0,
					"editable": 0
				},
				"post_title": {
					"type": "string",
					"title": "Title",
					"thread": 1,
					"editable": 1
				},
				"post_content": {
					"type": "text",
					"title": "Description",
					"thread": 0,
					"editable": 1
				},
				"start_date": {
					"type": "date",
					"title": "Start",
					"thread": 1,
					"editable": 1
				},
				"end_date": {
					"type": "date",
					"title": "Finish",
					"thread": 1,
					"editable": 1
				},
				"external_id": {
					"type": "string",
					"title": "Main Room ID",
					"thread": 0,
					"editable": 0,
					"hidden": 1
				},
				"external_title": {
					"type": "string",
					"title": "Main Room Title",
					"thread": 0,
					"editable": 0,
					"hidden": 1
				},
				"is_locked": {
					"type": "boolean",
					"title": "Is locked by password?",
					"thread": 1,
					"editable": 1
				},
				"pe_room": {
					"title": "Rooms",
					"type": "array",
					"kind": "type",
					"component": "PE_Room",
					"external_fields": [
						"id",
						"post_title"
					],
					"thread": 1,
					"editable": 0
				}
			},
			"visibled_value": "post_title",
			"name": "Transaction",
			"plural": "Transactions",
			"module":"pe-jitsi-module"
		},
		"PE_Room": {
			"admin_data": {
				"fill": [
					"#394B59",
					"#30404D"
				]
			},
			"apollo_fields": {
				"id": {
					"type": "string",
					"title": "id",
					"thread": 0,
					"editable": 0
				},
				"post_title": {
					"type": "string",
					"title": "Заголовок",
					"thread": 1,
					"editable": 1
				},
				"post_content": {
					"type": "text",
					"title": "Description",
					"thread": 0,
					"editable": 1
				},
				"external_id": {
					"type": "string",
					"title": "Main Room ID",
					"thread": 0,
					"editable": 0,
					"hidden": 1
				},
				"is_locked": {
					"type": "boolean",
					"title": "is locked by password?",
					"thread": 0,
					"editable": 0
				},
				"password": {
					"type": "string",
					"title": "password",
					"thread": 0,
					"editable": 0,
					"hidden": 1
				},
				"post_author": {
					"kind": "type",
					"type": "external",
					"component": "User",
					"title": "Автор",
					"external_fields": [
						"id",
						"display_name"
					],
					"thread": 1,
					"editable": 0
				},
				"pe_translation": {
					"title": "Трансляция",
					"kind": "type",
					"type": "external",
					"component": "PE_Translation",
					"external_fields": [
						"id",
						"post_title"
					],
					"thread": 1,
					"editable": 1
				}
			},
			"visibled_value": "post_title",
			"name": "Translation Room",
			"plural": "Translation Rooms",
			"module":"pe-jitsi-module"
		}
    },
    "routing": {
      "profile": [ ],
      "extended_routes": [ ],
      "main_menu": [ ], 
      "menu": [ ],
      "footer": []
    }

}